<?xml version="1.0" encoding="UTF-8" standalone="no"?>
<!-- Created with Inkscape (http://www.inkscape.org/) -->

<svg
   width="900mm"
   height="900mm"
   viewBox="0 0 900 900"
   version="1.1"
   id="svg5"
   inkscape:version="1.1.2 (0a00cf5339, 2022-02-04)"
   sodipodi:docname="transparency_background.svg"
   xmlns:inkscape="http://www.inkscape.org/namespaces/inkscape"
   xmlns:sodipodi="http://sodipodi.sourceforge.net/DTD/sodipodi-0.dtd"
   xmlns="http://www.w3.org/2000/svg"
   xmlns:svg="http://www.w3.org/2000/svg">
  <sodipodi:namedview
     id="namedview7"
     pagecolor="#ffffff"
     bordercolor="#666666"
     borderopacity="1.0"
     inkscape:pageshadow="2"
     inkscape:pageopacity="0.0"
     inkscape:pagecheckerboard="0"
     inkscape:document-units="mm"
     showgrid="true"
     inkscape:zoom="0.14490734"
     inkscape:cx="1649.3298"
     inkscape:cy="1456.1029"
     inkscape:window-width="1830"
     inkscape:window-height="1051"
     inkscape:window-x="0"
     inkscape:window-y="0"
     inkscape:window-maximized="1"
     inkscape:current-layer="layer1"
     objecttolerance="20">
    <inkscape:grid
       type="xygrid"
       id="grid9"
       units="mm"
       spacingx="30"
       spacingy="30" />
  </sodipodi:namedview>
  <defs
     id="defs2" />
  <g
     inkscape:label="Layer 1"
     inkscape:groupmode="layer"
     id="layer1">
    <rect
       style="fill:#cccccc;stroke-width:0.264583"
       id="rect55"
       width="30.000002"
       height="30.000002"
       x="0"
       y="-2.7815501e-08" />
    <rect
       style="fill:#cccccc;stroke-width:0.264583"
       id="rect55-6"
       width="30.000002"
       height="30.000002"
       x="60"
       y="-2.7815501e-08" />
    <rect
       style="fill:#cccccc;stroke-width:0.264583"
       id="rect55-7"
       width="30.000002"
       height="30.000002"
       x="30"
       y="29.999998" />
    <rect
       style="fill:#cccccc;stroke-width:0.264583"
       id="rect55-5"
       width="30.000002"
       height="30.000002"
       x="0"
       y="60" />
    <rect
       style="fill:#cccccc;stroke-width:0.264583"
       id="rect55-3"
       width="30.000002"
       height="30.000002"
       x="30"
       y="90" />
    <rect
       style="fill:#cccccc;stroke-width:0.264583"
       id="rect55-56"
       width="30.000002"
       height="30.000002"
       x="60"
       y="60" />
    <rect
       style="fill:#cccccc;stroke-width:0.264583"
       id="rect55-2"
       width="30.000002"
       height="30.000002"
       x="90"
       y="29.999998" />
    <rect
       style="fill:#cccccc;stroke-width:0.264583"
       id="rect55-9"
       width="30.000002"
       height="30.000002"
       x="120"
       y="-2.7815501e-08" />
    <rect
       style="fill:#cccccc;stroke-width:0.264583"
       id="rect55-1"
       width="30.000002"
       height="30.000002"
       x="150"
       y="29.999998" />
    <rect
       style="fill:#cccccc;stroke-width:0.264583"
       id="rect55-27"
       width="30.000002"
       height="30.000002"
       x="120"
       y="60" />
    <rect
       style="fill:#cccccc;stroke-width:0.264583"
       id="rect55-0"
       width="30.000002"
       height="30.000002"
       x="90"
       y="90" />
    <rect
       style="fill:#cccccc;stroke-width:0.264583"
       id="rect55-93"
       width="30.000002"
       height="30.000002"
       x="60"
       y="119.99998" />
    <rect
       style="fill:#cccccc;stroke-width:0.264583"
       id="rect55-60"
       width="30.000002"
       height="30.000002"
       x="30"
       y="150" />
    <rect
       style="fill:#cccccc;stroke-width:0.264583"
       id="rect55-62"
       width="30.000002"
       height="30.000002"
       x="0"
       y="180" />
    <rect
       style="fill:#cccccc;stroke-width:0.264583"
       id="rect55-61"
       width="30.000002"
       height="30.000002"
       x="30"
       y="210" />
    <rect
       style="fill:#cccccc;stroke-width:0.264583"
       id="rect55-8"
       width="30.000002"
       height="30.000002"
       x="0"
       y="240" />
    <rect
       style="fill:#cccccc;stroke-width:0.264583"
       id="rect55-23"
       width="30.000002"
       height="30.000002"
       x="60"
       y="240" />
    <rect
       style="fill:#cccccc;stroke-width:0.264583"
       id="rect55-92"
       width="30.000002"
       height="30.000002"
       x="30"
       y="270" />
    <rect
       style="fill:#cccccc;stroke-width:0.264583"
       id="rect55-28"
       width="30.000002"
       height="30.000002"
       x="60"
       y="180" />
    <rect
       style="fill:#cccccc;stroke-width:0.264583"
       id="rect55-97"
       width="30.000002"
       height="30.000002"
       x="90"
       y="150" />
    <rect
       style="fill:#cccccc;stroke-width:0.264583"
       id="rect55-36"
       width="30.000002"
       height="30.000002"
       x="90"
       y="210" />
    <rect
       style="fill:#cccccc;stroke-width:0.264583"
       id="rect55-12"
       width="30.000002"
       height="30.000002"
       x="90"
       y="270" />
    <rect
       style="fill:#cccccc;stroke-width:0.264583"
       id="rect55-931"
       width="30.000002"
       height="30.000002"
       x="120"
       y="240" />
    <rect
       style="fill:#cccccc;stroke-width:0.264583"
       id="rect55-94"
       width="30.000002"
       height="30.000002"
       x="150"
       y="270" />
    <rect
       style="fill:#cccccc;stroke-width:0.264583"
       id="rect55-78"
       width="30.000002"
       height="30.000002"
       x="150"
       y="210" />
    <rect
       style="fill:#cccccc;stroke-width:0.264583"
       id="rect55-4"
       width="30.000002"
       height="30.000002"
       x="120"
       y="180" />
    <rect
       style="fill:#cccccc;stroke-width:0.264583"
       id="rect55-50"
       width="30.000002"
       height="30.000002"
       x="150"
       y="150" />
    <rect
       style="fill:#cccccc;stroke-width:0.264583"
       id="rect55-361"
       width="30.000002"
       height="30.000002"
       x="120"
       y="119.99998" />
    <rect
       style="fill:#cccccc;stroke-width:0.264583"
       id="rect55-06"
       width="30.000002"
       height="30.000002"
       x="150"
       y="90" />
    <rect
       style="fill:#cccccc;stroke-width:0.264583"
       id="rect55-32"
       width="30.000002"
       height="30.000002"
       x="0"
       y="119.99998" />
    <rect
       style="fill:#cccccc;stroke-width:0.264583"
       id="rect55-061"
       width="30.000002"
       height="30.000002"
       x="180"
       y="-2.7815501e-08" />
    <rect
       style="fill:#cccccc;stroke-width:0.264583"
       id="rect55-55"
       width="30.000002"
       height="30.000002"
       x="180"
       y="60" />
    <rect
       style="fill:#cccccc;stroke-width:0.264583"
       id="rect55-47"
       width="30.000002"
       height="30.000002"
       x="180"
       y="119.99998" />
    <rect
       style="fill:#cccccc;stroke-width:0.264583"
       id="rect55-65"
       width="30.000002"
       height="30.000002"
       x="180"
       y="180" />
    <rect
       style="fill:#cccccc;stroke-width:0.264583"
       id="rect55-69"
       width="30.000002"
       height="30.000002"
       x="180"
       y="240" />
    <rect
       style="fill:#cccccc;stroke-width:0.264583"
       id="rect55-37"
       width="30.000002"
       height="30.000002"
       x="210"
       y="270" />
    <rect
       style="fill:#cccccc;stroke-width:0.264583"
       id="rect55-45"
       width="30.000002"
       height="30.000002"
       x="240"
       y="240" />
    <rect
       style="fill:#cccccc;stroke-width:0.264583"
       id="rect55-25"
       width="30.000002"
       height="30.000002"
       x="210"
       y="210" />
    <rect
       style="fill:#cccccc;stroke-width:0.264583"
       id="rect55-474"
       width="30.000002"
       height="30.000002"
       x="240"
       y="180" />
    <rect
       style="fill:#cccccc;stroke-width:0.264583"
       id="rect55-43"
       width="30.000002"
       height="30.000002"
       x="210"
       y="150" />
    <rect
       style="fill:#cccccc;stroke-width:0.264583"
       id="rect55-07"
       width="30.000002"
       height="30.000002"
       x="240"
       y="119.99998" />
    <rect
       style="fill:#cccccc;stroke-width:0.264583"
       id="rect55-86"
       width="30.000002"
       height="30.000002"
       x="210"
       y="90" />
    <rect
       style="fill:#cccccc;stroke-width:0.264583"
       id="rect55-88"
       width="30.000002"
       height="30.000002"
       x="240"
       y="60" />
    <rect
       style="fill:#cccccc;stroke-width:0.264583"
       id="rect55-431"
       width="30.000002"
       height="30.000002"
       x="210"
       y="29.999998" />
    <rect
       style="fill:#cccccc;stroke-width:0.264583"
       id="rect55-49"
       width="30.000002"
       height="30.000002"
       x="240"
       y="-2.7815501e-08" />
    <rect
       style="fill:#cccccc;stroke-width:0.264583"
       id="rect55-20"
       width="30.000002"
       height="30.000002"
       x="270"
       y="29.999998" />
    <rect
       style="fill:#cccccc;stroke-width:0.264583"
       id="rect55-68"
       width="30.000002"
       height="30.000002"
       x="270"
       y="90" />
    <rect
       style="fill:#cccccc;stroke-width:0.264583"
       id="rect55-926"
       width="30.000002"
       height="30.000002"
       x="270"
       y="150" />
    <rect
       style="fill:#cccccc;stroke-width:0.264583"
       id="rect55-64"
       width="30.000002"
       height="30.000002"
       x="270"
       y="210" />
    <rect
       style="fill:#cccccc;stroke-width:0.264583"
       id="rect55-95"
       width="30.000002"
       height="30.000002"
       x="270"
       y="270" />
    <rect
       style="fill:#cccccc;stroke-width:0.264583"
       id="rect55-04"
       width="30.000002"
       height="30.000002"
       x="-2.3817393e-11"
       y="300" />
    <rect
       style="fill:#cccccc;stroke-width:0.264583"
       id="rect55-6-8"
       width="30.000002"
       height="30.000002"
       x="60"
       y="300" />
    <rect
       style="fill:#cccccc;stroke-width:0.264583"
       id="rect55-7-7"
       width="30.000002"
       height="30.000002"
       x="30"
       y="330" />
    <rect
       style="fill:#cccccc;stroke-width:0.264583"
       id="rect55-5-1"
       width="30.000002"
       height="30.000002"
       x="-2.3817393e-11"
       y="360" />
    <rect
       style="fill:#cccccc;stroke-width:0.264583"
       id="rect55-3-7"
       width="30.000002"
       height="30.000002"
       x="30"
       y="390" />
    <rect
       style="fill:#cccccc;stroke-width:0.264583"
       id="rect55-56-2"
       width="30.000002"
       height="30.000002"
       x="60"
       y="360" />
    <rect
       style="fill:#cccccc;stroke-width:0.264583"
       id="rect55-2-7"
       width="30.000002"
       height="30.000002"
       x="90"
       y="330" />
    <rect
       style="fill:#cccccc;stroke-width:0.264583"
       id="rect55-9-2"
       width="30.000002"
       height="30.000002"
       x="120"
       y="300" />
    <rect
       style="fill:#cccccc;stroke-width:0.264583"
       id="rect55-1-2"
       width="30.000002"
       height="30.000002"
       x="150"
       y="330" />
    <rect
       style="fill:#cccccc;stroke-width:0.264583"
       id="rect55-27-6"
       width="30.000002"
       height="30.000002"
       x="120"
       y="360" />
    <rect
       style="fill:#cccccc;stroke-width:0.264583"
       id="rect55-0-1"
       width="30.000002"
       height="30.000002"
       x="90"
       y="390" />
    <rect
       style="fill:#cccccc;stroke-width:0.264583"
       id="rect55-93-0"
       width="30.000002"
       height="30.000002"
       x="60"
       y="420" />
    <rect
       style="fill:#cccccc;stroke-width:0.264583"
       id="rect55-60-6"
       width="30.000002"
       height="30.000002"
       x="30"
       y="450" />
    <rect
       style="fill:#cccccc;stroke-width:0.264583"
       id="rect55-62-1"
       width="30.000002"
       height="30.000002"
       x="-2.3817393e-11"
       y="480" />
    <rect
       style="fill:#cccccc;stroke-width:0.264583"
       id="rect55-61-5"
       width="30.000002"
       height="30.000002"
       x="30"
       y="510" />
    <rect
       style="fill:#cccccc;stroke-width:0.264583"
       id="rect55-8-9"
       width="30.000002"
       height="30.000002"
       x="-2.3817393e-11"
       y="540" />
    <rect
       style="fill:#cccccc;stroke-width:0.264583"
       id="rect55-23-4"
       width="30.000002"
       height="30.000002"
       x="60"
       y="540" />
    <rect
       style="fill:#cccccc;stroke-width:0.264583"
       id="rect55-92-9"
       width="30.000002"
       height="30.000002"
       x="30"
       y="570" />
    <rect
       style="fill:#cccccc;stroke-width:0.264583"
       id="rect55-28-0"
       width="30.000002"
       height="30.000002"
       x="60"
       y="480" />
    <rect
       style="fill:#cccccc;stroke-width:0.264583"
       id="rect55-97-9"
       width="30.000002"
       height="30.000002"
       x="90"
       y="450" />
    <rect
       style="fill:#cccccc;stroke-width:0.264583"
       id="rect55-36-1"
       width="30.000002"
       height="30.000002"
       x="90"
       y="510" />
    <rect
       style="fill:#cccccc;stroke-width:0.264583"
       id="rect55-12-7"
       width="30.000002"
       height="30.000002"
       x="90"
       y="570" />
    <rect
       style="fill:#cccccc;stroke-width:0.264583"
       id="rect55-931-7"
       width="30.000002"
       height="30.000002"
       x="120"
       y="540" />
    <rect
       style="fill:#cccccc;stroke-width:0.264583"
       id="rect55-94-1"
       width="30.000002"
       height="30.000002"
       x="150"
       y="570" />
    <rect
       style="fill:#cccccc;stroke-width:0.264583"
       id="rect55-78-1"
       width="30.000002"
       height="30.000002"
       x="150"
       y="510" />
    <rect
       style="fill:#cccccc;stroke-width:0.264583"
       id="rect55-4-5"
       width="30.000002"
       height="30.000002"
       x="120"
       y="480" />
    <rect
       style="fill:#cccccc;stroke-width:0.264583"
       id="rect55-50-9"
       width="30.000002"
       height="30.000002"
       x="150"
       y="450" />
    <rect
       style="fill:#cccccc;stroke-width:0.264583"
       id="rect55-361-7"
       width="30.000002"
       height="30.000002"
       x="120"
       y="420" />
    <rect
       style="fill:#cccccc;stroke-width:0.264583"
       id="rect55-06-7"
       width="30.000002"
       height="30.000002"
       x="150"
       y="390" />
    <rect
       style="fill:#cccccc;stroke-width:0.264583"
       id="rect55-32-6"
       width="30.000002"
       height="30.000002"
       x="-2.3817393e-11"
       y="420" />
    <rect
       style="fill:#cccccc;stroke-width:0.264583"
       id="rect55-061-7"
       width="30.000002"
       height="30.000002"
       x="180"
       y="300" />
    <rect
       style="fill:#cccccc;stroke-width:0.264583"
       id="rect55-55-3"
       width="30.000002"
       height="30.000002"
       x="180"
       y="360" />
    <rect
       style="fill:#cccccc;stroke-width:0.264583"
       id="rect55-47-6"
       width="30.000002"
       height="30.000002"
       x="180"
       y="420" />
    <rect
       style="fill:#cccccc;stroke-width:0.264583"
       id="rect55-65-5"
       width="30.000002"
       height="30.000002"
       x="180"
       y="480" />
    <rect
       style="fill:#cccccc;stroke-width:0.264583"
       id="rect55-69-6"
       width="30.000002"
       height="30.000002"
       x="180"
       y="540" />
    <rect
       style="fill:#cccccc;stroke-width:0.264583"
       id="rect55-37-3"
       width="30.000002"
       height="30.000002"
       x="210"
       y="570" />
    <rect
       style="fill:#cccccc;stroke-width:0.264583"
       id="rect55-45-9"
       width="30.000002"
       height="30.000002"
       x="240"
       y="540" />
    <rect
       style="fill:#cccccc;stroke-width:0.264583"
       id="rect55-25-4"
       width="30.000002"
       height="30.000002"
       x="210"
       y="510" />
    <rect
       style="fill:#cccccc;stroke-width:0.264583"
       id="rect55-474-8"
       width="30.000002"
       height="30.000002"
       x="240"
       y="480" />
    <rect
       style="fill:#cccccc;stroke-width:0.264583"
       id="rect55-43-1"
       width="30.000002"
       height="30.000002"
       x="210"
       y="450" />
    <rect
       style="fill:#cccccc;stroke-width:0.264583"
       id="rect55-07-2"
       width="30.000002"
       height="30.000002"
       x="240"
       y="420" />
    <rect
       style="fill:#cccccc;stroke-width:0.264583"
       id="rect55-86-9"
       width="30.000002"
       height="30.000002"
       x="210"
       y="390" />
    <rect
       style="fill:#cccccc;stroke-width:0.264583"
       id="rect55-88-3"
       width="30.000002"
       height="30.000002"
       x="240"
       y="360" />
    <rect
       style="fill:#cccccc;stroke-width:0.264583"
       id="rect55-431-9"
       width="30.000002"
       height="30.000002"
       x="210"
       y="330" />
    <rect
       style="fill:#cccccc;stroke-width:0.264583"
       id="rect55-49-0"
       width="30.000002"
       height="30.000002"
       x="240"
       y="300" />
    <rect
       style="fill:#cccccc;stroke-width:0.264583"
       id="rect55-20-8"
       width="30.000002"
       height="30.000002"
       x="270"
       y="330" />
    <rect
       style="fill:#cccccc;stroke-width:0.264583"
       id="rect55-68-8"
       width="30.000002"
       height="30.000002"
       x="270"
       y="390" />
    <rect
       style="fill:#cccccc;stroke-width:0.264583"
       id="rect55-926-5"
       width="30.000002"
       height="30.000002"
       x="270"
       y="450" />
    <rect
       style="fill:#cccccc;stroke-width:0.264583"
       id="rect55-64-0"
       width="30.000002"
       height="30.000002"
       x="270"
       y="510" />
    <rect
       style="fill:#cccccc;stroke-width:0.264583"
       id="rect55-95-9"
       width="30.000002"
       height="30.000002"
       x="270"
       y="570" />
    <rect
       style="fill:#cccccc;stroke-width:0.264583"
       id="rect55-63"
       width="30.000002"
       height="30.000002"
       x="-5.3390181e-11"
       y="600" />
    <rect
       style="fill:#cccccc;stroke-width:0.264583"
       id="rect55-6-85"
       width="30.000002"
       height="30.000002"
       x="60"
       y="600" />
    <rect
       style="fill:#cccccc;stroke-width:0.264583"
       id="rect55-7-6"
       width="30.000002"
       height="30.000002"
       x="30"
       y="630" />
    <rect
       style="fill:#cccccc;stroke-width:0.264583"
       id="rect55-5-11"
       width="30.000002"
       height="30.000002"
       x="-5.3390181e-11"
       y="660" />
    <rect
       style="fill:#cccccc;stroke-width:0.264583"
       id="rect55-3-5"
       width="30.000002"
       height="30.000002"
       x="30"
       y="690" />
    <rect
       style="fill:#cccccc;stroke-width:0.264583"
       id="rect55-56-9"
       width="30.000002"
       height="30.000002"
       x="60"
       y="660" />
    <rect
       style="fill:#cccccc;stroke-width:0.264583"
       id="rect55-2-8"
       width="30.000002"
       height="30.000002"
       x="90"
       y="630" />
    <rect
       style="fill:#cccccc;stroke-width:0.264583"
       id="rect55-9-4"
       width="30.000002"
       height="30.000002"
       x="120"
       y="600" />
    <rect
       style="fill:#cccccc;stroke-width:0.264583"
       id="rect55-1-8"
       width="30.000002"
       height="30.000002"
       x="150"
       y="630" />
    <rect
       style="fill:#cccccc;stroke-width:0.264583"
       id="rect55-27-1"
       width="30.000002"
       height="30.000002"
       x="120"
       y="660" />
    <rect
       style="fill:#cccccc;stroke-width:0.264583"
       id="rect55-0-0"
       width="30.000002"
       height="30.000002"
       x="90"
       y="690" />
    <rect
       style="fill:#cccccc;stroke-width:0.264583"
       id="rect55-93-3"
       width="30.000002"
       height="30.000002"
       x="60"
       y="720" />
    <rect
       style="fill:#cccccc;stroke-width:0.264583"
       id="rect55-60-0"
       width="30.000002"
       height="30.000002"
       x="30"
       y="750" />
    <rect
       style="fill:#cccccc;stroke-width:0.264583"
       id="rect55-62-4"
       width="30.000002"
       height="30.000002"
       x="-5.3390181e-11"
       y="780" />
    <rect
       style="fill:#cccccc;stroke-width:0.264583"
       id="rect55-61-4"
       width="30.000002"
       height="30.000002"
       x="30"
       y="810" />
    <rect
       style="fill:#cccccc;stroke-width:0.264583"
       id="rect55-8-4"
       width="30.000002"
       height="30.000002"
       x="-5.3390181e-11"
       y="840" />
    <rect
       style="fill:#cccccc;stroke-width:0.264583"
       id="rect55-23-47"
       width="30.000002"
       height="30.000002"
       x="60"
       y="840" />
    <rect
       style="fill:#cccccc;stroke-width:0.264583"
       id="rect55-92-6"
       width="30.000002"
       height="30.000002"
       x="30"
       y="870" />
    <rect
       style="fill:#cccccc;stroke-width:0.264583"
       id="rect55-28-3"
       width="30.000002"
       height="30.000002"
       x="60"
       y="780" />
    <rect
       style="fill:#cccccc;stroke-width:0.264583"
       id="rect55-97-1"
       width="30.000002"
       height="30.000002"
       x="90"
       y="750" />
    <rect
       style="fill:#cccccc;stroke-width:0.264583"
       id="rect55-36-7"
       width="30.000002"
       height="30.000002"
       x="90"
       y="810" />
    <rect
       style="fill:#cccccc;stroke-width:0.264583"
       id="rect55-12-5"
       width="30.000002"
       height="30.000002"
       x="90"
       y="870" />
    <rect
       style="fill:#cccccc;stroke-width:0.264583"
       id="rect55-931-9"
       width="30.000002"
       height="30.000002"
       x="120"
       y="840" />
    <rect
       style="fill:#cccccc;stroke-width:0.264583"
       id="rect55-94-6"
       width="30.000002"
       height="30.000002"
       x="150"
       y="870" />
    <rect
       style="fill:#cccccc;stroke-width:0.264583"
       id="rect55-78-2"
       width="30.000002"
       height="30.000002"
       x="150"
       y="810" />
    <rect
       style="fill:#cccccc;stroke-width:0.264583"
       id="rect55-4-1"
       width="30.000002"
       height="30.000002"
       x="120"
       y="780" />
    <rect
       style="fill:#cccccc;stroke-width:0.264583"
       id="rect55-50-7"
       width="30.000002"
       height="30.000002"
       x="150"
       y="750" />
    <rect
       style="fill:#cccccc;stroke-width:0.264583"
       id="rect55-361-8"
       width="30.000002"
       height="30.000002"
       x="120"
       y="720" />
    <rect
       style="fill:#cccccc;stroke-width:0.264583"
       id="rect55-06-5"
       width="30.000002"
       height="30.000002"
       x="150"
       y="690" />
    <rect
       style="fill:#cccccc;stroke-width:0.264583"
       id="rect55-32-7"
       width="30.000002"
       height="30.000002"
       x="-5.3390181e-11"
       y="720" />
    <rect
       style="fill:#cccccc;stroke-width:0.264583"
       id="rect55-061-4"
       width="30.000002"
       height="30.000002"
       x="180"
       y="600" />
    <rect
       style="fill:#cccccc;stroke-width:0.264583"
       id="rect55-55-1"
       width="30.000002"
       height="30.000002"
       x="180"
       y="660" />
    <rect
       style="fill:#cccccc;stroke-width:0.264583"
       id="rect55-47-8"
       width="30.000002"
       height="30.000002"
       x="180"
       y="720" />
    <rect
       style="fill:#cccccc;stroke-width:0.264583"
       id="rect55-65-59"
       width="30.000002"
       height="30.000002"
       x="180"
       y="780" />
    <rect
       style="fill:#cccccc;stroke-width:0.264583"
       id="rect55-69-7"
       width="30.000002"
       height="30.000002"
       x="180"
       y="840" />
    <rect
       style="fill:#cccccc;stroke-width:0.264583"
       id="rect55-37-5"
       width="30.000002"
       height="30.000002"
       x="210"
       y="870" />
    <rect
       style="fill:#cccccc;stroke-width:0.264583"
       id="rect55-45-3"
       width="30.000002"
       height="30.000002"
       x="240"
       y="840" />
    <rect
       style="fill:#cccccc;stroke-width:0.264583"
       id="rect55-25-8"
       width="30.000002"
       height="30.000002"
       x="210"
       y="810" />
    <rect
       style="fill:#cccccc;stroke-width:0.264583"
       id="rect55-474-83"
       width="30.000002"
       height="30.000002"
       x="240"
       y="780" />
    <rect
       style="fill:#cccccc;stroke-width:0.264583"
       id="rect55-43-18"
       width="30.000002"
       height="30.000002"
       x="210"
       y="750" />
    <rect
       style="fill:#cccccc;stroke-width:0.264583"
       id="rect55-07-9"
       width="30.000002"
       height="30.000002"
       x="240"
       y="720" />
    <rect
       style="fill:#cccccc;stroke-width:0.264583"
       id="rect55-86-6"
       width="30.000002"
       height="30.000002"
       x="210"
       y="690" />
    <rect
       style="fill:#cccccc;stroke-width:0.264583"
       id="rect55-88-4"
       width="30.000002"
       height="30.000002"
       x="240"
       y="660" />
    <rect
       style="fill:#cccccc;stroke-width:0.264583"
       id="rect55-431-3"
       width="30.000002"
       height="30.000002"
       x="210"
       y="630" />
    <rect
       style="fill:#cccccc;stroke-width:0.264583"
       id="rect55-49-3"
       width="30.000002"
       height="30.000002"
       x="240"
       y="600" />
    <rect
       style="fill:#cccccc;stroke-width:0.264583"
       id="rect55-20-3"
       width="30.000002"
       height="30.000002"
       x="270"
       y="630" />
    <rect
       style="fill:#cccccc;stroke-width:0.264583"
       id="rect55-68-86"
       width="30.000002"
       height="30.000002"
       x="270"
       y="690" />
    <rect
       style="fill:#cccccc;stroke-width:0.264583"
       id="rect55-926-0"
       width="30.000002"
       height="30.000002"
       x="270"
       y="750" />
    <rect
       style="fill:#cccccc;stroke-width:0.264583"
       id="rect55-64-4"
       width="30.000002"
       height="30.000002"
       x="270"
       y="810" />
    <rect
       style="fill:#cccccc;stroke-width:0.264583"
       id="rect55-95-8"
       width="30.000002"
       height="30.000002"
       x="270"
       y="870" />
    <rect
       style="fill:#cccccc;stroke-width:0.264583"
       id="rect55-508"
       width="30.000002"
       height="30.000002"
       x="300"
       y="0.00012207031" />
    <rect
       style="fill:#cccccc;stroke-width:0.264583"
       id="rect55-6-04"
       width="30.000002"
       height="30.000002"
       x="360"
       y="0.00012207031" />
    <rect
       style="fill:#cccccc;stroke-width:0.264583"
       id="rect55-7-1"
       width="30.000002"
       height="30.000002"
       x="330"
       y="30.000122" />
    <rect
       style="fill:#cccccc;stroke-width:0.264583"
       id="rect55-5-13"
       width="30.000002"
       height="30.000002"
       x="300"
       y="60.000122" />
    <rect
       style="fill:#cccccc;stroke-width:0.264583"
       id="rect55-3-59"
       width="30.000002"
       height="30.000002"
       x="330"
       y="90.000122" />
    <rect
       style="fill:#cccccc;stroke-width:0.264583"
       id="rect55-56-3"
       width="30.000002"
       height="30.000002"
       x="360"
       y="60.000122" />
    <rect
       style="fill:#cccccc;stroke-width:0.264583"
       id="rect55-2-4"
       width="30.000002"
       height="30.000002"
       x="390"
       y="30.000122" />
    <rect
       style="fill:#cccccc;stroke-width:0.264583"
       id="rect55-9-15"
       width="30.000002"
       height="30.000002"
       x="420"
       y="0.00012207031" />
    <rect
       style="fill:#cccccc;stroke-width:0.264583"
       id="rect55-1-08"
       width="30.000002"
       height="30.000002"
       x="450"
       y="30.000122" />
    <rect
       style="fill:#cccccc;stroke-width:0.264583"
       id="rect55-27-35"
       width="30.000002"
       height="30.000002"
       x="420"
       y="60.000122" />
    <rect
       style="fill:#cccccc;stroke-width:0.264583"
       id="rect55-0-65"
       width="30.000002"
       height="30.000002"
       x="390"
       y="90.000122" />
    <rect
       style="fill:#cccccc;stroke-width:0.264583"
       id="rect55-93-99"
       width="30.000002"
       height="30.000002"
       x="360"
       y="120.00012" />
    <rect
       style="fill:#cccccc;stroke-width:0.264583"
       id="rect55-60-07"
       width="30.000002"
       height="30.000002"
       x="330"
       y="150.00012" />
    <rect
       style="fill:#cccccc;stroke-width:0.264583"
       id="rect55-62-6"
       width="30.000002"
       height="30.000002"
       x="300"
       y="180.00012" />
    <rect
       style="fill:#cccccc;stroke-width:0.264583"
       id="rect55-61-37"
       width="30.000002"
       height="30.000002"
       x="330"
       y="210.00012" />
    <rect
       style="fill:#cccccc;stroke-width:0.264583"
       id="rect55-8-6"
       width="30.000002"
       height="30.000002"
       x="300"
       y="240.00012" />
    <rect
       style="fill:#cccccc;stroke-width:0.264583"
       id="rect55-23-15"
       width="30.000002"
       height="30.000002"
       x="360"
       y="240.00012" />
    <rect
       style="fill:#cccccc;stroke-width:0.264583"
       id="rect55-92-06"
       width="30.000002"
       height="30.000002"
       x="330"
       y="270.00012" />
    <rect
       style="fill:#cccccc;stroke-width:0.264583"
       id="rect55-28-50"
       width="30.000002"
       height="30.000002"
       x="360"
       y="180.00012" />
    <rect
       style="fill:#cccccc;stroke-width:0.264583"
       id="rect55-97-81"
       width="30.000002"
       height="30.000002"
       x="390"
       y="150.00012" />
    <rect
       style="fill:#cccccc;stroke-width:0.264583"
       id="rect55-36-22"
       width="30.000002"
       height="30.000002"
       x="390"
       y="210.00012" />
    <rect
       style="fill:#cccccc;stroke-width:0.264583"
       id="rect55-12-69"
       width="30.000002"
       height="30.000002"
       x="390"
       y="270.00012" />
    <rect
       style="fill:#cccccc;stroke-width:0.264583"
       id="rect55-931-1"
       width="30.000002"
       height="30.000002"
       x="420"
       y="240.00012" />
    <rect
       style="fill:#cccccc;stroke-width:0.264583"
       id="rect55-94-04"
       width="30.000002"
       height="30.000002"
       x="450"
       y="270.00012" />
    <rect
       style="fill:#cccccc;stroke-width:0.264583"
       id="rect55-78-27"
       width="30.000002"
       height="30.000002"
       x="450"
       y="210.00012" />
    <rect
       style="fill:#cccccc;stroke-width:0.264583"
       id="rect55-4-4"
       width="30.000002"
       height="30.000002"
       x="420"
       y="180.00012" />
    <rect
       style="fill:#cccccc;stroke-width:0.264583"
       id="rect55-50-0"
       width="30.000002"
       height="30.000002"
       x="450"
       y="150.00012" />
    <rect
       style="fill:#cccccc;stroke-width:0.264583"
       id="rect55-361-32"
       width="30.000002"
       height="30.000002"
       x="420"
       y="120.00012" />
    <rect
       style="fill:#cccccc;stroke-width:0.264583"
       id="rect55-06-80"
       width="30.000002"
       height="30.000002"
       x="450"
       y="90.000122" />
    <rect
       style="fill:#cccccc;stroke-width:0.264583"
       id="rect55-32-37"
       width="30.000002"
       height="30.000002"
       x="300"
       y="120.00012" />
    <rect
       style="fill:#cccccc;stroke-width:0.264583"
       id="rect55-061-0"
       width="30.000002"
       height="30.000002"
       x="480"
       y="0.00012207031" />
    <rect
       style="fill:#cccccc;stroke-width:0.264583"
       id="rect55-55-03"
       width="30.000002"
       height="30.000002"
       x="480"
       y="60.000122" />
    <rect
       style="fill:#cccccc;stroke-width:0.264583"
       id="rect55-47-4"
       width="30.000002"
       height="30.000002"
       x="480"
       y="120.00012" />
    <rect
       style="fill:#cccccc;stroke-width:0.264583"
       id="rect55-65-9"
       width="30.000002"
       height="30.000002"
       x="480"
       y="180.00012" />
    <rect
       style="fill:#cccccc;stroke-width:0.264583"
       id="rect55-69-27"
       width="30.000002"
       height="30.000002"
       x="480"
       y="240.00012" />
    <rect
       style="fill:#cccccc;stroke-width:0.264583"
       id="rect55-37-4"
       width="30.000002"
       height="30.000002"
       x="510"
       y="270.00012" />
    <rect
       style="fill:#cccccc;stroke-width:0.264583"
       id="rect55-45-252"
       width="30.000002"
       height="30.000002"
       x="540"
       y="240.00012" />
    <rect
       style="fill:#cccccc;stroke-width:0.264583"
       id="rect55-25-44"
       width="30.000002"
       height="30.000002"
       x="510"
       y="210.00012" />
    <rect
       style="fill:#cccccc;stroke-width:0.264583"
       id="rect55-474-38"
       width="30.000002"
       height="30.000002"
       x="540"
       y="180.00012" />
    <rect
       style="fill:#cccccc;stroke-width:0.264583"
       id="rect55-43-60"
       width="30.000002"
       height="30.000002"
       x="510"
       y="150.00012" />
    <rect
       style="fill:#cccccc;stroke-width:0.264583"
       id="rect55-07-89"
       width="30.000002"
       height="30.000002"
       x="540"
       y="120.00012" />
    <rect
       style="fill:#cccccc;stroke-width:0.264583"
       id="rect55-86-2"
       width="30.000002"
       height="30.000002"
       x="510"
       y="90.000122" />
    <rect
       style="fill:#cccccc;stroke-width:0.264583"
       id="rect55-88-2"
       width="30.000002"
       height="30.000002"
       x="540"
       y="60.000122" />
    <rect
       style="fill:#cccccc;stroke-width:0.264583"
       id="rect55-431-31"
       width="30.000002"
       height="30.000002"
       x="510"
       y="30.000122" />
    <rect
       style="fill:#cccccc;stroke-width:0.264583"
       id="rect55-49-8"
       width="30.000002"
       height="30.000002"
       x="540"
       y="0.00012207031" />
    <rect
       style="fill:#cccccc;stroke-width:0.264583"
       id="rect55-20-34"
       width="30.000002"
       height="30.000002"
       x="570"
       y="30.000122" />
    <rect
       style="fill:#cccccc;stroke-width:0.264583"
       id="rect55-68-22"
       width="30.000002"
       height="30.000002"
       x="570"
       y="90.000122" />
    <rect
       style="fill:#cccccc;stroke-width:0.264583"
       id="rect55-926-45"
       width="30.000002"
       height="30.000002"
       x="570"
       y="150.00012" />
    <rect
       style="fill:#cccccc;stroke-width:0.264583"
       id="rect55-64-1"
       width="30.000002"
       height="30.000002"
       x="570"
       y="210.00012" />
    <rect
       style="fill:#cccccc;stroke-width:0.264583"
       id="rect55-95-7"
       width="30.000002"
       height="30.000002"
       x="570"
       y="270.00012" />
    <rect
       style="fill:#cccccc;stroke-width:0.264583"
       id="rect55-04-5"
       width="30.000002"
       height="30.000002"
       x="300"
       y="300.00012" />
    <rect
       style="fill:#cccccc;stroke-width:0.264583"
       id="rect55-6-8-7"
       width="30.000002"
       height="30.000002"
       x="360"
       y="300.00012" />
    <rect
       style="fill:#cccccc;stroke-width:0.264583"
       id="rect55-7-7-1"
       width="30.000002"
       height="30.000002"
       x="330"
       y="330.00012" />
    <rect
       style="fill:#cccccc;stroke-width:0.264583"
       id="rect55-5-1-6"
       width="30.000002"
       height="30.000002"
       x="300"
       y="360.00012" />
    <rect
       style="fill:#cccccc;stroke-width:0.264583"
       id="rect55-3-7-9"
       width="30.000002"
       height="30.000002"
       x="330"
       y="390.00012" />
    <rect
       style="fill:#cccccc;stroke-width:0.264583"
       id="rect55-56-2-8"
       width="30.000002"
       height="30.000002"
       x="360"
       y="360.00012" />
    <rect
       style="fill:#cccccc;stroke-width:0.264583"
       id="rect55-2-7-1"
       width="30.000002"
       height="30.000002"
       x="390"
       y="330.00012" />
    <rect
       style="fill:#cccccc;stroke-width:0.264583"
       id="rect55-9-2-3"
       width="30.000002"
       height="30.000002"
       x="420"
       y="300.00012" />
    <rect
       style="fill:#cccccc;stroke-width:0.264583"
       id="rect55-1-2-3"
       width="30.000002"
       height="30.000002"
       x="450"
       y="330.00012" />
    <rect
       style="fill:#cccccc;stroke-width:0.264583"
       id="rect55-27-6-3"
       width="30.000002"
       height="30.000002"
       x="420"
       y="360.00012" />
    <rect
       style="fill:#cccccc;stroke-width:0.264583"
       id="rect55-0-1-7"
       width="30.000002"
       height="30.000002"
       x="390"
       y="390.00012" />
    <rect
       style="fill:#cccccc;stroke-width:0.264583"
       id="rect55-93-0-9"
       width="30.000002"
       height="30.000002"
       x="360"
       y="420.00012" />
    <rect
       style="fill:#cccccc;stroke-width:0.264583"
       id="rect55-60-6-8"
       width="30.000002"
       height="30.000002"
       x="330"
       y="450.00012" />
    <rect
       style="fill:#cccccc;stroke-width:0.264583"
       id="rect55-62-1-6"
       width="30.000002"
       height="30.000002"
       x="300"
       y="480.00012" />
    <rect
       style="fill:#cccccc;stroke-width:0.264583"
       id="rect55-61-5-7"
       width="30.000002"
       height="30.000002"
       x="330"
       y="510.00012" />
    <rect
       style="fill:#cccccc;stroke-width:0.264583"
       id="rect55-8-9-0"
       width="30.000002"
       height="30.000002"
       x="300"
       y="540.00012" />
    <rect
       style="fill:#cccccc;stroke-width:0.264583"
       id="rect55-23-4-4"
       width="30.000002"
       height="30.000002"
       x="360"
       y="540.00012" />
    <rect
       style="fill:#cccccc;stroke-width:0.264583"
       id="rect55-92-9-8"
       width="30.000002"
       height="30.000002"
       x="330"
       y="570" />
    <rect
       style="fill:#cccccc;stroke-width:0.264583"
       id="rect55-28-0-4"
       width="30.000002"
       height="30.000002"
       x="360"
       y="480.00012" />
    <rect
       style="fill:#cccccc;stroke-width:0.264583"
       id="rect55-97-9-8"
       width="30.000002"
       height="30.000002"
       x="390"
       y="450.00012" />
    <rect
       style="fill:#cccccc;stroke-width:0.264583"
       id="rect55-36-1-1"
       width="30.000002"
       height="30.000002"
       x="390"
       y="510.00012" />
    <rect
       style="fill:#cccccc;stroke-width:0.264583"
       id="rect55-12-7-6"
       width="30.000002"
       height="30.000002"
       x="390"
       y="570" />
    <rect
       style="fill:#cccccc;stroke-width:0.264583"
       id="rect55-931-7-8"
       width="30.000002"
       height="30.000002"
       x="420"
       y="540.00012" />
    <rect
       style="fill:#cccccc;stroke-width:0.264583"
       id="rect55-94-1-5"
       width="30.000002"
       height="30.000002"
       x="450"
       y="570" />
    <rect
       style="fill:#cccccc;stroke-width:0.264583"
       id="rect55-78-1-2"
       width="30.000002"
       height="30.000002"
       x="450"
       y="510.00012" />
    <rect
       style="fill:#cccccc;stroke-width:0.264583"
       id="rect55-4-5-1"
       width="30.000002"
       height="30.000002"
       x="420"
       y="480.00012" />
    <rect
       style="fill:#cccccc;stroke-width:0.264583"
       id="rect55-50-9-9"
       width="30.000002"
       height="30.000002"
       x="450"
       y="450.00012" />
    <rect
       style="fill:#cccccc;stroke-width:0.264583"
       id="rect55-361-7-9"
       width="30.000002"
       height="30.000002"
       x="420"
       y="420.00012" />
    <rect
       style="fill:#cccccc;stroke-width:0.264583"
       id="rect55-06-7-6"
       width="30.000002"
       height="30.000002"
       x="450"
       y="390.00012" />
    <rect
       style="fill:#cccccc;stroke-width:0.264583"
       id="rect55-32-6-0"
       width="30.000002"
       height="30.000002"
       x="300"
       y="420.00012" />
    <rect
       style="fill:#cccccc;stroke-width:0.264583"
       id="rect55-061-7-6"
       width="30.000002"
       height="30.000002"
       x="480"
       y="300.00012" />
    <rect
       style="fill:#cccccc;stroke-width:0.264583"
       id="rect55-55-3-4"
       width="30.000002"
       height="30.000002"
       x="480"
       y="360.00012" />
    <rect
       style="fill:#cccccc;stroke-width:0.264583"
       id="rect55-47-6-9"
       width="30.000002"
       height="30.000002"
       x="480"
       y="420.00012" />
    <rect
       style="fill:#cccccc;stroke-width:0.264583"
       id="rect55-65-5-9"
       width="30.000002"
       height="30.000002"
       x="480"
       y="480.00012" />
    <rect
       style="fill:#cccccc;stroke-width:0.264583"
       id="rect55-69-6-0"
       width="30.000002"
       height="30.000002"
       x="480"
       y="540.00012" />
    <rect
       style="fill:#cccccc;stroke-width:0.264583"
       id="rect55-37-3-8"
       width="30.000002"
       height="30.000002"
       x="510"
       y="570" />
    <rect
       style="fill:#cccccc;stroke-width:0.264583"
       id="rect55-45-9-9"
       width="30.000002"
       height="30.000002"
       x="540"
       y="540.00012" />
    <rect
       style="fill:#cccccc;stroke-width:0.264583"
       id="rect55-25-4-3"
       width="30.000002"
       height="30.000002"
       x="510"
       y="510.00012" />
    <rect
       style="fill:#cccccc;stroke-width:0.264583"
       id="rect55-474-8-1"
       width="30.000002"
       height="30.000002"
       x="540"
       y="480.00012" />
    <rect
       style="fill:#cccccc;stroke-width:0.264583"
       id="rect55-43-1-4"
       width="30.000002"
       height="30.000002"
       x="510"
       y="450.00012" />
    <rect
       style="fill:#cccccc;stroke-width:0.264583"
       id="rect55-07-2-8"
       width="30.000002"
       height="30.000002"
       x="540"
       y="420.00012" />
    <rect
       style="fill:#cccccc;stroke-width:0.264583"
       id="rect55-86-9-9"
       width="30.000002"
       height="30.000002"
       x="510"
       y="390.00012" />
    <rect
       style="fill:#cccccc;stroke-width:0.264583"
       id="rect55-88-3-6"
       width="30.000002"
       height="30.000002"
       x="540"
       y="360.00012" />
    <rect
       style="fill:#cccccc;stroke-width:0.264583"
       id="rect55-431-9-7"
       width="30.000002"
       height="30.000002"
       x="510"
       y="330.00012" />
    <rect
       style="fill:#cccccc;stroke-width:0.264583"
       id="rect55-49-0-7"
       width="30.000002"
       height="30.000002"
       x="540"
       y="300.00012" />
    <rect
       style="fill:#cccccc;stroke-width:0.264583"
       id="rect55-20-8-3"
       width="30.000002"
       height="30.000002"
       x="570"
       y="330.00012" />
    <rect
       style="fill:#cccccc;stroke-width:0.264583"
       id="rect55-68-8-7"
       width="30.000002"
       height="30.000002"
       x="570"
       y="390.00012" />
    <rect
       style="fill:#cccccc;stroke-width:0.264583"
       id="rect55-926-5-1"
       width="30.000002"
       height="30.000002"
       x="570"
       y="450.00012" />
    <rect
       style="fill:#cccccc;stroke-width:0.264583"
       id="rect55-64-0-2"
       width="30.000002"
       height="30.000002"
       x="570"
       y="510.00012" />
    <rect
       style="fill:#cccccc;stroke-width:0.264583"
       id="rect55-95-9-2"
       width="30.000002"
       height="30.000002"
       x="570"
       y="570" />
    <rect
       style="fill:#cccccc;stroke-width:0.264583"
       id="rect55-63-1"
       width="30.000002"
       height="30.000002"
       x="300"
       y="600" />
    <rect
       style="fill:#cccccc;stroke-width:0.264583"
       id="rect55-6-85-5"
       width="30.000002"
       height="30.000002"
       x="360"
       y="600" />
    <rect
       style="fill:#cccccc;stroke-width:0.264583"
       id="rect55-7-6-0"
       width="30.000002"
       height="30.000002"
       x="330"
       y="630" />
    <rect
       style="fill:#cccccc;stroke-width:0.264583"
       id="rect55-5-11-9"
       width="30.000002"
       height="30.000002"
       x="300"
       y="660" />
    <rect
       style="fill:#cccccc;stroke-width:0.264583"
       id="rect55-3-5-0"
       width="30.000002"
       height="30.000002"
       x="330"
       y="690" />
    <rect
       style="fill:#cccccc;stroke-width:0.264583"
       id="rect55-56-9-4"
       width="30.000002"
       height="30.000002"
       x="360"
       y="660" />
    <rect
       style="fill:#cccccc;stroke-width:0.264583"
       id="rect55-2-8-0"
       width="30.000002"
       height="30.000002"
       x="390"
       y="630" />
    <rect
       style="fill:#cccccc;stroke-width:0.264583"
       id="rect55-9-4-1"
       width="30.000002"
       height="30.000002"
       x="420"
       y="600" />
    <rect
       style="fill:#cccccc;stroke-width:0.264583"
       id="rect55-1-8-3"
       width="30.000002"
       height="30.000002"
       x="450"
       y="630" />
    <rect
       style="fill:#cccccc;stroke-width:0.264583"
       id="rect55-27-1-7"
       width="30.000002"
       height="30.000002"
       x="420"
       y="660" />
    <rect
       style="fill:#cccccc;stroke-width:0.264583"
       id="rect55-0-0-4"
       width="30.000002"
       height="30.000002"
       x="390"
       y="690" />
    <rect
       style="fill:#cccccc;stroke-width:0.264583"
       id="rect55-93-3-1"
       width="30.000002"
       height="30.000002"
       x="360"
       y="720" />
    <rect
       style="fill:#cccccc;stroke-width:0.264583"
       id="rect55-60-0-1"
       width="30.000002"
       height="30.000002"
       x="330"
       y="750" />
    <rect
       style="fill:#cccccc;stroke-width:0.264583"
       id="rect55-62-4-3"
       width="30.000002"
       height="30.000002"
       x="300"
       y="780" />
    <rect
       style="fill:#cccccc;stroke-width:0.264583"
       id="rect55-61-4-0"
       width="30.000002"
       height="30.000002"
       x="330"
       y="810" />
    <rect
       style="fill:#cccccc;stroke-width:0.264583"
       id="rect55-8-4-3"
       width="30.000002"
       height="30.000002"
       x="300"
       y="840" />
    <rect
       style="fill:#cccccc;stroke-width:0.264583"
       id="rect55-23-47-2"
       width="30.000002"
       height="30.000002"
       x="360"
       y="840" />
    <rect
       style="fill:#cccccc;stroke-width:0.264583"
       id="rect55-92-6-1"
       width="30.000002"
       height="30.000002"
       x="330"
       y="870" />
    <rect
       style="fill:#cccccc;stroke-width:0.264583"
       id="rect55-28-3-7"
       width="30.000002"
       height="30.000002"
       x="360"
       y="780" />
    <rect
       style="fill:#cccccc;stroke-width:0.264583"
       id="rect55-97-1-5"
       width="30.000002"
       height="30.000002"
       x="390"
       y="750" />
    <rect
       style="fill:#cccccc;stroke-width:0.264583"
       id="rect55-36-7-6"
       width="30.000002"
       height="30.000002"
       x="390"
       y="810" />
    <rect
       style="fill:#cccccc;stroke-width:0.264583"
       id="rect55-12-5-5"
       width="30.000002"
       height="30.000002"
       x="390"
       y="870" />
    <rect
       style="fill:#cccccc;stroke-width:0.264583"
       id="rect55-931-9-4"
       width="30.000002"
       height="30.000002"
       x="420"
       y="840" />
    <rect
       style="fill:#cccccc;stroke-width:0.264583"
       id="rect55-94-6-2"
       width="30.000002"
       height="30.000002"
       x="450"
       y="870" />
    <rect
       style="fill:#cccccc;stroke-width:0.264583"
       id="rect55-78-2-2"
       width="30.000002"
       height="30.000002"
       x="450"
       y="810" />
    <rect
       style="fill:#cccccc;stroke-width:0.264583"
       id="rect55-4-1-1"
       width="30.000002"
       height="30.000002"
       x="420"
       y="780" />
    <rect
       style="fill:#cccccc;stroke-width:0.264583"
       id="rect55-50-7-7"
       width="30.000002"
       height="30.000002"
       x="450"
       y="750" />
    <rect
       style="fill:#cccccc;stroke-width:0.264583"
       id="rect55-361-8-2"
       width="30.000002"
       height="30.000002"
       x="420"
       y="720" />
    <rect
       style="fill:#cccccc;stroke-width:0.264583"
       id="rect55-06-5-4"
       width="30.000002"
       height="30.000002"
       x="450"
       y="690" />
    <rect
       style="fill:#cccccc;stroke-width:0.264583"
       id="rect55-32-7-1"
       width="30.000002"
       height="30.000002"
       x="300"
       y="720" />
    <rect
       style="fill:#cccccc;stroke-width:0.264583"
       id="rect55-061-4-6"
       width="30.000002"
       height="30.000002"
       x="480"
       y="600" />
    <rect
       style="fill:#cccccc;stroke-width:0.264583"
       id="rect55-55-1-5"
       width="30.000002"
       height="30.000002"
       x="480"
       y="660" />
    <rect
       style="fill:#cccccc;stroke-width:0.264583"
       id="rect55-47-8-7"
       width="30.000002"
       height="30.000002"
       x="480"
       y="720" />
    <rect
       style="fill:#cccccc;stroke-width:0.264583"
       id="rect55-65-59-8"
       width="30.000002"
       height="30.000002"
       x="480"
       y="780" />
    <rect
       style="fill:#cccccc;stroke-width:0.264583"
       id="rect55-69-7-5"
       width="30.000002"
       height="30.000002"
       x="480"
       y="840" />
    <rect
       style="fill:#cccccc;stroke-width:0.264583"
       id="rect55-37-5-9"
       width="30.000002"
       height="30.000002"
       x="510"
       y="870" />
    <rect
       style="fill:#cccccc;stroke-width:0.264583"
       id="rect55-45-3-2"
       width="30.000002"
       height="30.000002"
       x="540"
       y="840" />
    <rect
       style="fill:#cccccc;stroke-width:0.264583"
       id="rect55-25-8-7"
       width="30.000002"
       height="30.000002"
       x="510"
       y="810" />
    <rect
       style="fill:#cccccc;stroke-width:0.264583"
       id="rect55-474-83-3"
       width="30.000002"
       height="30.000002"
       x="540"
       y="780" />
    <rect
       style="fill:#cccccc;stroke-width:0.264583"
       id="rect55-43-18-6"
       width="30.000002"
       height="30.000002"
       x="510"
       y="750" />
    <rect
       style="fill:#cccccc;stroke-width:0.264583"
       id="rect55-07-9-4"
       width="30.000002"
       height="30.000002"
       x="540"
       y="720" />
    <rect
       style="fill:#cccccc;stroke-width:0.264583"
       id="rect55-86-6-7"
       width="30.000002"
       height="30.000002"
       x="510"
       y="690" />
    <rect
       style="fill:#cccccc;stroke-width:0.264583"
       id="rect55-88-4-9"
       width="30.000002"
       height="30.000002"
       x="540"
       y="660" />
    <rect
       style="fill:#cccccc;stroke-width:0.264583"
       id="rect55-431-3-7"
       width="30.000002"
       height="30.000002"
       x="510"
       y="630" />
    <rect
       style="fill:#cccccc;stroke-width:0.264583"
       id="rect55-49-3-2"
       width="30.000002"
       height="30.000002"
       x="540"
       y="600" />
    <rect
       style="fill:#cccccc;stroke-width:0.264583"
       id="rect55-20-3-2"
       width="30.000002"
       height="30.000002"
       x="570"
       y="630" />
    <rect
       style="fill:#cccccc;stroke-width:0.264583"
       id="rect55-68-86-1"
       width="30.000002"
       height="30.000002"
       x="570"
       y="690" />
    <rect
       style="fill:#cccccc;stroke-width:0.264583"
       id="rect55-926-0-6"
       width="30.000002"
       height="30.000002"
       x="570"
       y="750" />
    <rect
       style="fill:#cccccc;stroke-width:0.264583"
       id="rect55-64-4-3"
       width="30.000002"
       height="30.000002"
       x="570"
       y="810" />
    <rect
       style="fill:#cccccc;stroke-width:0.264583"
       id="rect55-95-8-0"
       width="30.000002"
       height="30.000002"
       x="570"
       y="870" />
    <rect
       style="fill:#cccccc;stroke-width:0.264583"
       id="rect55-83"
       width="30.000002"
       height="30.000002"
       x="600"
       y="6.1035156e-05" />
    <rect
       style="fill:#cccccc;stroke-width:0.264583"
       id="rect55-6-2"
       width="30.000002"
       height="30.000002"
       x="660"
       y="6.1035156e-05" />
    <rect
       style="fill:#cccccc;stroke-width:0.264583"
       id="rect55-7-95"
       width="30.000002"
       height="30.000002"
       x="630"
       y="30.000061" />
    <rect
       style="fill:#cccccc;stroke-width:0.264583"
       id="rect55-5-43"
       width="30.000002"
       height="30.000002"
       x="600"
       y="60.000061" />
    <rect
       style="fill:#cccccc;stroke-width:0.264583"
       id="rect55-3-9"
       width="30.000002"
       height="30.000002"
       x="630"
       y="90.000061" />
    <rect
       style="fill:#cccccc;stroke-width:0.264583"
       id="rect55-56-49"
       width="30.000002"
       height="30.000002"
       x="660"
       y="60.000061" />
    <rect
       style="fill:#cccccc;stroke-width:0.264583"
       id="rect55-2-55"
       width="30.000002"
       height="30.000002"
       x="690"
       y="30.000061" />
    <rect
       style="fill:#cccccc;stroke-width:0.264583"
       id="rect55-9-7"
       width="30.000002"
       height="30.000002"
       x="720"
       y="6.1035156e-05" />
    <rect
       style="fill:#cccccc;stroke-width:0.264583"
       id="rect55-1-39"
       width="30.000002"
       height="30.000002"
       x="750"
       y="30.000061" />
    <rect
       style="fill:#cccccc;stroke-width:0.264583"
       id="rect55-27-0"
       width="30.000002"
       height="30.000002"
       x="720"
       y="60.000061" />
    <rect
       style="fill:#cccccc;stroke-width:0.264583"
       id="rect55-0-72"
       width="30.000002"
       height="30.000002"
       x="690"
       y="90.000061" />
    <rect
       style="fill:#cccccc;stroke-width:0.264583"
       id="rect55-93-72"
       width="30.000002"
       height="30.000002"
       x="660"
       y="120.00006" />
    <rect
       style="fill:#cccccc;stroke-width:0.264583"
       id="rect55-60-90"
       width="30.000002"
       height="30.000002"
       x="630"
       y="150.00006" />
    <rect
       style="fill:#cccccc;stroke-width:0.264583"
       id="rect55-62-5"
       width="30.000002"
       height="30.000002"
       x="600"
       y="180.00006" />
    <rect
       style="fill:#cccccc;stroke-width:0.264583"
       id="rect55-61-0"
       width="30.000002"
       height="30.000002"
       x="630"
       y="210.00006" />
    <rect
       style="fill:#cccccc;stroke-width:0.264583"
       id="rect55-8-417"
       width="30.000002"
       height="30.000002"
       x="600"
       y="240.00006" />
    <rect
       style="fill:#cccccc;stroke-width:0.264583"
       id="rect55-23-93"
       width="30.000002"
       height="30.000002"
       x="660"
       y="240.00006" />
    <rect
       style="fill:#cccccc;stroke-width:0.264583"
       id="rect55-92-62"
       width="30.000002"
       height="30.000002"
       x="630"
       y="270.00012" />
    <rect
       style="fill:#cccccc;stroke-width:0.264583"
       id="rect55-28-1"
       width="30.000002"
       height="30.000002"
       x="660"
       y="180.00006" />
    <rect
       style="fill:#cccccc;stroke-width:0.264583"
       id="rect55-97-2"
       width="30.000002"
       height="30.000002"
       x="690"
       y="150.00006" />
    <rect
       style="fill:#cccccc;stroke-width:0.264583"
       id="rect55-36-53"
       width="30.000002"
       height="30.000002"
       x="690"
       y="210.00006" />
    <rect
       style="fill:#cccccc;stroke-width:0.264583"
       id="rect55-12-9"
       width="30.000002"
       height="30.000002"
       x="690"
       y="270.00012" />
    <rect
       style="fill:#cccccc;stroke-width:0.264583"
       id="rect55-931-18"
       width="30.000002"
       height="30.000002"
       x="720"
       y="240.00006" />
    <rect
       style="fill:#cccccc;stroke-width:0.264583"
       id="rect55-94-87"
       width="30.000002"
       height="30.000002"
       x="750"
       y="270.00012" />
    <rect
       style="fill:#cccccc;stroke-width:0.264583"
       id="rect55-78-05"
       width="30.000002"
       height="30.000002"
       x="750"
       y="210.00006" />
    <rect
       style="fill:#cccccc;stroke-width:0.264583"
       id="rect55-4-27"
       width="30.000002"
       height="30.000002"
       x="720"
       y="180.00006" />
    <rect
       style="fill:#cccccc;stroke-width:0.264583"
       id="rect55-50-91"
       width="30.000002"
       height="30.000002"
       x="750"
       y="150.00006" />
    <rect
       style="fill:#cccccc;stroke-width:0.264583"
       id="rect55-361-9"
       width="30.000002"
       height="30.000002"
       x="720"
       y="120.00006" />
    <rect
       style="fill:#cccccc;stroke-width:0.264583"
       id="rect55-06-63"
       width="30.000002"
       height="30.000002"
       x="750"
       y="90.000061" />
    <rect
       style="fill:#cccccc;stroke-width:0.264583"
       id="rect55-32-68"
       width="30.000002"
       height="30.000002"
       x="600"
       y="120.00006" />
    <rect
       style="fill:#cccccc;stroke-width:0.264583"
       id="rect55-061-466"
       width="30.000002"
       height="30.000002"
       x="780"
       y="6.1035156e-05" />
    <rect
       style="fill:#cccccc;stroke-width:0.264583"
       id="rect55-55-72"
       width="30.000002"
       height="30.000002"
       x="780"
       y="60.000061" />
    <rect
       style="fill:#cccccc;stroke-width:0.264583"
       id="rect55-47-7"
       width="30.000002"
       height="30.000002"
       x="780"
       y="120.00006" />
    <rect
       style="fill:#cccccc;stroke-width:0.264583"
       id="rect55-65-41"
       width="30.000002"
       height="30.000002"
       x="780"
       y="180.00006" />
    <rect
       style="fill:#cccccc;stroke-width:0.264583"
       id="rect55-69-00"
       width="30.000002"
       height="30.000002"
       x="780"
       y="240.00006" />
    <rect
       style="fill:#cccccc;stroke-width:0.264583"
       id="rect55-37-6"
       width="30.000002"
       height="30.000002"
       x="810"
       y="270.00012" />
    <rect
       style="fill:#cccccc;stroke-width:0.264583"
       id="rect55-45-44"
       width="30.000002"
       height="30.000002"
       x="840"
       y="240.00006" />
    <rect
       style="fill:#cccccc;stroke-width:0.264583"
       id="rect55-25-3"
       width="30.000002"
       height="30.000002"
       x="810"
       y="210.00006" />
    <rect
       style="fill:#cccccc;stroke-width:0.264583"
       id="rect55-474-7"
       width="30.000002"
       height="30.000002"
       x="840"
       y="180.00006" />
    <rect
       style="fill:#cccccc;stroke-width:0.264583"
       id="rect55-43-34"
       width="30.000002"
       height="30.000002"
       x="810"
       y="150.00006" />
    <rect
       style="fill:#cccccc;stroke-width:0.264583"
       id="rect55-07-72"
       width="30.000002"
       height="30.000002"
       x="840"
       y="120.00006" />
    <rect
       style="fill:#cccccc;stroke-width:0.264583"
       id="rect55-86-179"
       width="30.000002"
       height="30.000002"
       x="810"
       y="90.000061" />
    <rect
       style="fill:#cccccc;stroke-width:0.264583"
       id="rect55-88-56"
       width="30.000002"
       height="30.000002"
       x="840"
       y="60.000061" />
    <rect
       style="fill:#cccccc;stroke-width:0.264583"
       id="rect55-431-89"
       width="30.000002"
       height="30.000002"
       x="810"
       y="30.000061" />
    <rect
       style="fill:#cccccc;stroke-width:0.264583"
       id="rect55-49-55"
       width="30.000002"
       height="30.000002"
       x="840"
       y="6.1035156e-05" />
    <rect
       style="fill:#cccccc;stroke-width:0.264583"
       id="rect55-20-21"
       width="30.000002"
       height="30.000002"
       x="870"
       y="30.000061" />
    <rect
       style="fill:#cccccc;stroke-width:0.264583"
       id="rect55-68-5"
       width="30.000002"
       height="30.000002"
       x="870"
       y="90.000061" />
    <rect
       style="fill:#cccccc;stroke-width:0.264583"
       id="rect55-926-9"
       width="30.000002"
       height="30.000002"
       x="870"
       y="150.00006" />
    <rect
       style="fill:#cccccc;stroke-width:0.264583"
       id="rect55-64-91"
       width="30.000002"
       height="30.000002"
       x="870"
       y="210.00006" />
    <rect
       style="fill:#cccccc;stroke-width:0.264583"
       id="rect55-95-62"
       width="30.000002"
       height="30.000002"
       x="870"
       y="270.00012" />
    <rect
       style="fill:#cccccc;stroke-width:0.264583"
       id="rect55-04-1"
       width="30.000002"
       height="30.000002"
       x="600"
       y="300.00012" />
    <rect
       style="fill:#cccccc;stroke-width:0.264583"
       id="rect55-6-8-0"
       width="30.000002"
       height="30.000002"
       x="660"
       y="300.00012" />
    <rect
       style="fill:#cccccc;stroke-width:0.264583"
       id="rect55-7-7-5"
       width="30.000002"
       height="30.000002"
       x="630"
       y="330.00012" />
    <rect
       style="fill:#cccccc;stroke-width:0.264583"
       id="rect55-5-1-3"
       width="30.000002"
       height="30.000002"
       x="600"
       y="360.00012" />
    <rect
       style="fill:#cccccc;stroke-width:0.264583"
       id="rect55-3-7-2"
       width="30.000002"
       height="30.000002"
       x="630"
       y="390.00012" />
    <rect
       style="fill:#cccccc;stroke-width:0.264583"
       id="rect55-56-2-1"
       width="30.000002"
       height="30.000002"
       x="660"
       y="360.00012" />
    <rect
       style="fill:#cccccc;stroke-width:0.264583"
       id="rect55-2-7-9"
       width="30.000002"
       height="30.000002"
       x="690"
       y="330.00012" />
    <rect
       style="fill:#cccccc;stroke-width:0.264583"
       id="rect55-9-2-7"
       width="30.000002"
       height="30.000002"
       x="720"
       y="300.00012" />
    <rect
       style="fill:#cccccc;stroke-width:0.264583"
       id="rect55-1-2-6"
       width="30.000002"
       height="30.000002"
       x="750"
       y="330.00012" />
    <rect
       style="fill:#cccccc;stroke-width:0.264583"
       id="rect55-27-6-8"
       width="30.000002"
       height="30.000002"
       x="720"
       y="360.00012" />
    <rect
       style="fill:#cccccc;stroke-width:0.264583"
       id="rect55-0-1-2"
       width="30.000002"
       height="30.000002"
       x="690"
       y="390.00012" />
    <rect
       style="fill:#cccccc;stroke-width:0.264583"
       id="rect55-93-0-0"
       width="30.000002"
       height="30.000002"
       x="660"
       y="420.00012" />
    <rect
       style="fill:#cccccc;stroke-width:0.264583"
       id="rect55-60-6-6"
       width="30.000002"
       height="30.000002"
       x="630"
       y="450.00012" />
    <rect
       style="fill:#cccccc;stroke-width:0.264583"
       id="rect55-62-1-4"
       width="30.000002"
       height="30.000002"
       x="600"
       y="480.00012" />
    <rect
       style="fill:#cccccc;stroke-width:0.264583"
       id="rect55-61-5-3"
       width="30.000002"
       height="30.000002"
       x="630"
       y="510.00012" />
    <rect
       style="fill:#cccccc;stroke-width:0.264583"
       id="rect55-8-9-3"
       width="30.000002"
       height="30.000002"
       x="600"
       y="540.00012" />
    <rect
       style="fill:#cccccc;stroke-width:0.264583"
       id="rect55-23-4-6"
       width="30.000002"
       height="30.000002"
       x="660"
       y="540.00012" />
    <rect
       style="fill:#cccccc;stroke-width:0.264583"
       id="rect55-92-9-9"
       width="30.000002"
       height="30.000002"
       x="630"
       y="570.00012" />
    <rect
       style="fill:#cccccc;stroke-width:0.264583"
       id="rect55-28-0-0"
       width="30.000002"
       height="30.000002"
       x="660"
       y="480.00012" />
    <rect
       style="fill:#cccccc;stroke-width:0.264583"
       id="rect55-97-9-4"
       width="30.000002"
       height="30.000002"
       x="690"
       y="450.00012" />
    <rect
       style="fill:#cccccc;stroke-width:0.264583"
       id="rect55-36-1-8"
       width="30.000002"
       height="30.000002"
       x="690"
       y="510.00012" />
    <rect
       style="fill:#cccccc;stroke-width:0.264583"
       id="rect55-12-7-5"
       width="30.000002"
       height="30.000002"
       x="690"
       y="570.00012" />
    <rect
       style="fill:#cccccc;stroke-width:0.264583"
       id="rect55-931-7-1"
       width="30.000002"
       height="30.000002"
       x="720"
       y="540.00012" />
    <rect
       style="fill:#cccccc;stroke-width:0.264583"
       id="rect55-94-1-2"
       width="30.000002"
       height="30.000002"
       x="750"
       y="570.00012" />
    <rect
       style="fill:#cccccc;stroke-width:0.264583"
       id="rect55-78-1-9"
       width="30.000002"
       height="30.000002"
       x="750"
       y="510.00012" />
    <rect
       style="fill:#cccccc;stroke-width:0.264583"
       id="rect55-4-5-7"
       width="30.000002"
       height="30.000002"
       x="720"
       y="480.00012" />
    <rect
       style="fill:#cccccc;stroke-width:0.264583"
       id="rect55-50-9-3"
       width="30.000002"
       height="30.000002"
       x="750"
       y="450.00012" />
    <rect
       style="fill:#cccccc;stroke-width:0.264583"
       id="rect55-361-7-8"
       width="30.000002"
       height="30.000002"
       x="720"
       y="420.00012" />
    <rect
       style="fill:#cccccc;stroke-width:0.264583"
       id="rect55-06-7-0"
       width="30.000002"
       height="30.000002"
       x="750"
       y="390.00012" />
    <rect
       style="fill:#cccccc;stroke-width:0.264583"
       id="rect55-32-6-9"
       width="30.000002"
       height="30.000002"
       x="600"
       y="420.00012" />
    <rect
       style="fill:#cccccc;stroke-width:0.264583"
       id="rect55-061-7-2"
       width="30.000002"
       height="30.000002"
       x="780"
       y="300.00012" />
    <rect
       style="fill:#cccccc;stroke-width:0.264583"
       id="rect55-55-3-3"
       width="30.000002"
       height="30.000002"
       x="780"
       y="360.00012" />
    <rect
       style="fill:#cccccc;stroke-width:0.264583"
       id="rect55-47-6-1"
       width="30.000002"
       height="30.000002"
       x="780"
       y="420.00012" />
    <rect
       style="fill:#cccccc;stroke-width:0.264583"
       id="rect55-65-5-8"
       width="30.000002"
       height="30.000002"
       x="780"
       y="480.00012" />
    <rect
       style="fill:#cccccc;stroke-width:0.264583"
       id="rect55-69-6-7"
       width="30.000002"
       height="30.000002"
       x="780"
       y="540.00012" />
    <rect
       style="fill:#cccccc;stroke-width:0.264583"
       id="rect55-37-3-4"
       width="30.000002"
       height="30.000002"
       x="810"
       y="570.00012" />
    <rect
       style="fill:#cccccc;stroke-width:0.264583"
       id="rect55-45-9-1"
       width="30.000002"
       height="30.000002"
       x="840"
       y="540.00012" />
    <rect
       style="fill:#cccccc;stroke-width:0.264583"
       id="rect55-25-4-6"
       width="30.000002"
       height="30.000002"
       x="810"
       y="510.00012" />
    <rect
       style="fill:#cccccc;stroke-width:0.264583"
       id="rect55-474-8-3"
       width="30.000002"
       height="30.000002"
       x="840"
       y="480.00012" />
    <rect
       style="fill:#cccccc;stroke-width:0.264583"
       id="rect55-43-1-8"
       width="30.000002"
       height="30.000002"
       x="810"
       y="450.00012" />
    <rect
       style="fill:#cccccc;stroke-width:0.264583"
       id="rect55-07-2-5"
       width="30.000002"
       height="30.000002"
       x="840"
       y="420.00012" />
    <rect
       style="fill:#cccccc;stroke-width:0.264583"
       id="rect55-86-9-5"
       width="30.000002"
       height="30.000002"
       x="810"
       y="390.00012" />
    <rect
       style="fill:#cccccc;stroke-width:0.264583"
       id="rect55-88-3-0"
       width="30.000002"
       height="30.000002"
       x="840"
       y="360.00012" />
    <rect
       style="fill:#cccccc;stroke-width:0.264583"
       id="rect55-431-9-1"
       width="30.000002"
       height="30.000002"
       x="810"
       y="330.00012" />
    <rect
       style="fill:#cccccc;stroke-width:0.264583"
       id="rect55-49-0-2"
       width="30.000002"
       height="30.000002"
       x="840"
       y="300.00012" />
    <rect
       style="fill:#cccccc;stroke-width:0.264583"
       id="rect55-20-8-6"
       width="30.000002"
       height="30.000002"
       x="870"
       y="330.00012" />
    <rect
       style="fill:#cccccc;stroke-width:0.264583"
       id="rect55-68-8-4"
       width="30.000002"
       height="30.000002"
       x="870"
       y="390.00012" />
    <rect
       style="fill:#cccccc;stroke-width:0.264583"
       id="rect55-926-5-8"
       width="30.000002"
       height="30.000002"
       x="870"
       y="450.00012" />
    <rect
       style="fill:#cccccc;stroke-width:0.264583"
       id="rect55-64-0-5"
       width="30.000002"
       height="30.000002"
       x="870"
       y="510.00012" />
    <rect
       style="fill:#cccccc;stroke-width:0.264583"
       id="rect55-95-9-6"
       width="30.000002"
       height="30.000002"
       x="870"
       y="570.00012" />
    <rect
       style="fill:#cccccc;stroke-width:0.264583"
       id="rect55-63-2"
       width="30.000002"
       height="30.000002"
       x="600"
       y="600.00012" />
    <rect
       style="fill:#cccccc;stroke-width:0.264583"
       id="rect55-6-85-52"
       width="30.000002"
       height="30.000002"
       x="660"
       y="600.00012" />
    <rect
       style="fill:#cccccc;stroke-width:0.264583"
       id="rect55-7-6-6"
       width="30.000002"
       height="30.000002"
       x="630"
       y="630.00012" />
    <rect
       style="fill:#cccccc;stroke-width:0.264583"
       id="rect55-5-11-91"
       width="30.000002"
       height="30.000002"
       x="600"
       y="660.00012" />
    <rect
       style="fill:#cccccc;stroke-width:0.264583"
       id="rect55-3-5-3"
       width="30.000002"
       height="30.000002"
       x="630"
       y="690.00012" />
    <rect
       style="fill:#cccccc;stroke-width:0.264583"
       id="rect55-56-9-3"
       width="30.000002"
       height="30.000002"
       x="660"
       y="660.00012" />
    <rect
       style="fill:#cccccc;stroke-width:0.264583"
       id="rect55-2-8-1"
       width="30.000002"
       height="30.000002"
       x="690"
       y="630.00012" />
    <rect
       style="fill:#cccccc;stroke-width:0.264583"
       id="rect55-9-4-5"
       width="30.000002"
       height="30.000002"
       x="720"
       y="600.00012" />
    <rect
       style="fill:#cccccc;stroke-width:0.264583"
       id="rect55-1-8-2"
       width="30.000002"
       height="30.000002"
       x="750"
       y="630.00012" />
    <rect
       style="fill:#cccccc;stroke-width:0.264583"
       id="rect55-27-1-6"
       width="30.000002"
       height="30.000002"
       x="720"
       y="660.00012" />
    <rect
       style="fill:#cccccc;stroke-width:0.264583"
       id="rect55-0-0-9"
       width="30.000002"
       height="30.000002"
       x="690"
       y="690.00012" />
    <rect
       style="fill:#cccccc;stroke-width:0.264583"
       id="rect55-93-3-4"
       width="30.000002"
       height="30.000002"
       x="660"
       y="720.00012" />
    <rect
       style="fill:#cccccc;stroke-width:0.264583"
       id="rect55-60-0-4"
       width="30.000002"
       height="30.000002"
       x="630"
       y="750.00012" />
    <rect
       style="fill:#cccccc;stroke-width:0.264583"
       id="rect55-62-4-6"
       width="30.000002"
       height="30.000002"
       x="600"
       y="780.00012" />
    <rect
       style="fill:#cccccc;stroke-width:0.264583"
       id="rect55-61-4-07"
       width="30.000002"
       height="30.000002"
       x="630"
       y="810.00012" />
    <rect
       style="fill:#cccccc;stroke-width:0.264583"
       id="rect55-8-4-4"
       width="30.000002"
       height="30.000002"
       x="600"
       y="840.00012" />
    <rect
       style="fill:#cccccc;stroke-width:0.264583"
       id="rect55-23-47-3"
       width="30.000002"
       height="30.000002"
       x="660"
       y="840.00012" />
    <rect
       style="fill:#cccccc;stroke-width:0.264583"
       id="rect55-92-6-7"
       width="30.000002"
       height="30.000002"
       x="630"
       y="870.00012" />
    <rect
       style="fill:#cccccc;stroke-width:0.264583"
       id="rect55-28-3-9"
       width="30.000002"
       height="30.000002"
       x="660"
       y="780.00012" />
    <rect
       style="fill:#cccccc;stroke-width:0.264583"
       id="rect55-97-1-0"
       width="30.000002"
       height="30.000002"
       x="690"
       y="750.00012" />
    <rect
       style="fill:#cccccc;stroke-width:0.264583"
       id="rect55-36-7-0"
       width="30.000002"
       height="30.000002"
       x="690"
       y="810.00012" />
    <rect
       style="fill:#cccccc;stroke-width:0.264583"
       id="rect55-12-5-2"
       width="30.000002"
       height="30.000002"
       x="690"
       y="870.00012" />
    <rect
       style="fill:#cccccc;stroke-width:0.264583"
       id="rect55-931-9-2"
       width="30.000002"
       height="30.000002"
       x="720"
       y="840.00012" />
    <rect
       style="fill:#cccccc;stroke-width:0.264583"
       id="rect55-94-6-6"
       width="30.000002"
       height="30.000002"
       x="750"
       y="870.00012" />
    <rect
       style="fill:#cccccc;stroke-width:0.264583"
       id="rect55-78-2-9"
       width="30.000002"
       height="30.000002"
       x="750"
       y="810.00012" />
    <rect
       style="fill:#cccccc;stroke-width:0.264583"
       id="rect55-4-1-0"
       width="30.000002"
       height="30.000002"
       x="720"
       y="780.00012" />
    <rect
       style="fill:#cccccc;stroke-width:0.264583"
       id="rect55-50-7-3"
       width="30.000002"
       height="30.000002"
       x="750"
       y="750.00012" />
    <rect
       style="fill:#cccccc;stroke-width:0.264583"
       id="rect55-361-8-5"
       width="30.000002"
       height="30.000002"
       x="720"
       y="720.00012" />
    <rect
       style="fill:#cccccc;stroke-width:0.264583"
       id="rect55-06-5-5"
       width="30.000002"
       height="30.000002"
       x="750"
       y="690.00012" />
    <rect
       style="fill:#cccccc;stroke-width:0.264583"
       id="rect55-32-7-8"
       width="30.000002"
       height="30.000002"
       x="600"
       y="720.00012" />
    <rect
       style="fill:#cccccc;stroke-width:0.264583"
       id="rect55-061-4-7"
       width="30.000002"
       height="30.000002"
       x="780"
       y="600.00012" />
    <rect
       style="fill:#cccccc;stroke-width:0.264583"
       id="rect55-55-1-1"
       width="30.000002"
       height="30.000002"
       x="780"
       y="660.00012" />
    <rect
       style="fill:#cccccc;stroke-width:0.264583"
       id="rect55-47-8-70"
       width="30.000002"
       height="30.000002"
       x="780"
       y="720.00012" />
    <rect
       style="fill:#cccccc;stroke-width:0.264583"
       id="rect55-65-59-6"
       width="30.000002"
       height="30.000002"
       x="780"
       y="780.00012" />
    <rect
       style="fill:#cccccc;stroke-width:0.264583"
       id="rect55-69-7-0"
       width="30.000002"
       height="30.000002"
       x="780"
       y="840.00012" />
    <rect
       style="fill:#cccccc;stroke-width:0.264583"
       id="rect55-37-5-4"
       width="30.000002"
       height="30.000002"
       x="810"
       y="870.00012" />
    <rect
       style="fill:#cccccc;stroke-width:0.264583"
       id="rect55-45-3-1"
       width="30.000002"
       height="30.000002"
       x="840"
       y="840.00012" />
    <rect
       style="fill:#cccccc;stroke-width:0.264583"
       id="rect55-25-8-3"
       width="30.000002"
       height="30.000002"
       x="810"
       y="810.00012" />
    <rect
       style="fill:#cccccc;stroke-width:0.264583"
       id="rect55-474-83-0"
       width="30.000002"
       height="30.000002"
       x="840"
       y="780.00012" />
    <rect
       style="fill:#cccccc;stroke-width:0.264583"
       id="rect55-43-18-2"
       width="30.000002"
       height="30.000002"
       x="810"
       y="750.00012" />
    <rect
       style="fill:#cccccc;stroke-width:0.264583"
       id="rect55-07-9-9"
       width="30.000002"
       height="30.000002"
       x="840"
       y="720.00012" />
    <rect
       style="fill:#cccccc;stroke-width:0.264583"
       id="rect55-86-6-6"
       width="30.000002"
       height="30.000002"
       x="810"
       y="690.00012" />
    <rect
       style="fill:#cccccc;stroke-width:0.264583"
       id="rect55-88-4-0"
       width="30.000002"
       height="30.000002"
       x="840"
       y="660.00012" />
    <rect
       style="fill:#cccccc;stroke-width:0.264583"
       id="rect55-431-3-9"
       width="30.000002"
       height="30.000002"
       x="810"
       y="630.00012" />
    <rect
       style="fill:#cccccc;stroke-width:0.264583"
       id="rect55-49-3-3"
       width="30.000002"
       height="30.000002"
       x="840"
       y="600.00012" />
    <rect
       style="fill:#cccccc;stroke-width:0.264583"
       id="rect55-20-3-5"
       width="30.000002"
       height="30.000002"
       x="870"
       y="630.00012" />
    <rect
       style="fill:#cccccc;stroke-width:0.264583"
       id="rect55-68-86-4"
       width="30.000002"
       height="30.000002"
       x="870"
       y="690.00012" />
    <rect
       style="fill:#cccccc;stroke-width:0.264583"
       id="rect55-926-0-3"
       width="30.000002"
       height="30.000002"
       x="870"
       y="750.00012" />
    <rect
       style="fill:#cccccc;stroke-width:0.264583"
       id="rect55-64-4-6"
       width="30.000002"
       height="30.000002"
       x="870"
       y="810.00012" />
    <rect
       style="fill:#cccccc;stroke-width:0.264583"
       id="rect55-95-8-4"
       width="30.000002"
       height="30.000002"
       x="870"
       y="870.00012" />
  </g>
</svg>
